…
``` r
homicide_df %>%
  group_by(city_state) %>%
  summarize(
    homicide_total = n(),
    homocide_unsolved = sum(resolved == "Unsolved")
  )
```

    ## `summarise()` ungrouping output (override with `.groups` argument)

    ## # A tibble: 50 x 3
    ##    city_state     homicide_total homocide_unsolved
    ##    <chr>                   <int>             <int>
    ##  1 Albuquerque_NM            378               146
    ##  2 Atlanta_GA                973               373
    ##  3 Baltimore_MD             2827              1825
    ##  4 Baton Rouge_LA            424               196
    ##  5 Birmingham_AL             800               347
    ##  6 Boston_MA                 614               310
    ##  7 Buffalo_NY                521               319
    ##  8 Charlotte_NC              687               206
    ##  9 Chicago_IL               5535              4073
    ## 10 Cincinnati_OH             694               309
    ## # ... with 40 more rows
